<?xml version="1.0" encoding="utf-8"?>
<COLLADA xmlns="http://www.collada.org/2005/11/COLLADASchema" version="1.4.1">
   <asset>
      <contributor>
         <authoring_tool>Google SketchUp 6.4.112</authoring_tool>
      </contributor>
      <created>2009-02-25T18:07:28Z</created>
      <modified>2009-02-25T18:07:28Z</modified>
      <unit name="inches" meter="0.0254"/>
      <up_axis>Z_UP</up_axis>
   </asset>
   <library_images>
      <image id="material0-image" name="material0-image">
         <init_from>../materials/textures/texture0.jpg</init_from>
      </image>
      <image id="material1-image" name="material1-image">
         <init_from>../materials/textures/texture1.jpg</init_from>
      </image>
   </library_images>
   <library_materials>
      <material id="material0ID" name="material0">
         <instance_effect url="#material0-effect"/>
      </material>
      <material id="ForegroundColorID" name="ForegroundColor">
         <instance_effect url="#ForegroundColor-effect"/>
      </material>
      <material id="material1ID" name="material1">
         <instance_effect url="#material1-effect"/>
      </material>
      <material id="FrontColorNoCullingID" name="FrontColorNoCulling">
         <instance_effect url="#FrontColorNoCulling-effect"/>
      </material>
   </library_materials>
   <library_effects>
      <effect id="material0-effect" name="material0-effect">
         <profile_COMMON>
            <newparam sid="material0-image-surface">
               <surface type="2D">
                  <init_from>material0-image</init_from>
               </surface>
            </newparam>
            <newparam sid="material0-image-sampler">
               <sampler2D>
                  <source>material0-image-surface</source>
               </sampler2D>
            </newparam>
            <technique sid="COMMON">
               <phong>
                  <emission>
                     <color>0.000000 0.000000 0.000000 1</color>
                  </emission>
                  <ambient>
                     <color>0.000000 0.000000 0.000000 1</color>
                  </ambient>
                  <diffuse>
                     <texture texture="material0-image-sampler" texcoord="UVSET0"/>
                  </diffuse>
                  <specular>
                     <color>0.330000 0.330000 0.330000 1</color>
                  </specular>
                  <shininess>
                     <float>20.000000</float>
                  </shininess>
                  <reflectivity>
                     <float>0.100000</float>
                  </reflectivity>
                  <transparent>
                     <color>1 1 1 1</color>
                  </transparent>
                  <transparency>
                     <float>0.000000</float>
                  </transparency>
               </phong>
            </technique>
            <extra>
               <technique profile="GOOGLEEARTH">
                  <double_sided>1</double_sided>
               </technique>
            </extra>
         </profile_COMMON>
      </effect>
      <effect id="ForegroundColor-effect" name="ForegroundColor-effect">
         <profile_COMMON>
            <technique sid="COMMON">
               <phong>
                  <emission>
                     <color>0.000000 0.000000 0.000000 1</color>
                  </emission>
                  <ambient>
                     <color>0.000000 0.000000 0.000000 1</color>
                  </ambient>
                  <diffuse>
                     <color>0.000000 0.000000 0.000000 1</color>
                  </diffuse>
                  <specular>
                     <color>0.330000 0.330000 0.330000 1</color>
                  </specular>
                  <shininess>
                     <float>20.000000</float>
                  </shininess>
                  <reflectivity>
                     <float>0.100000</float>
                  </reflectivity>
                  <transparent>
                     <color>1 1 1 1</color>
                  </transparent>
                  <transparency>
                     <float>0.000000</float>
                  </transparency>
               </phong>
            </technique>
            <extra>
               <technique profile="GOOGLEEARTH">
                  <double_sided>1</double_sided>
               </technique>
            </extra>
         </profile_COMMON>
      </effect>
      <effect id="material1-effect" name="material1-effect">
         <profile_COMMON>
            <newparam sid="material1-image-surface">
               <surface type="2D">
                  <init_from>material1-image</init_from>
               </surface>
            </newparam>
            <newparam sid="material1-image-sampler">
               <sampler2D>
                  <source>material1-image-surface</source>
               </sampler2D>
            </newparam>
            <technique sid="COMMON">
               <phong>
                  <emission>
                     <color>0.000000 0.000000 0.000000 1</color>
                  </emission>
                  <ambient>
                     <color>0.000000 0.000000 0.000000 1</color>
                  </ambient>
                  <diffuse>
                     <texture texture="material1-image-sampler" texcoord="UVSET0"/>
                  </diffuse>
                  <specular>
                     <color>0.330000 0.330000 0.330000 1</color>
                  </specular>
                  <shininess>
                     <float>20.000000</float>
                  </shininess>
                  <reflectivity>
                     <float>0.100000</float>
                  </reflectivity>
                  <transparent>
                     <color>1 1 1 1</color>
                  </transparent>
                  <transparency>
                     <float>0.000000</float>
                  </transparency>
               </phong>
            </technique>
            <extra>
               <technique profile="GOOGLEEARTH">
                  <double_sided>1</double_sided>
               </technique>
            </extra>
         </profile_COMMON>
      </effect>
      <effect id="FrontColorNoCulling-effect" name="FrontColorNoCulling-effect">
         <profile_COMMON>
            <technique sid="COMMON">
               <phong>
                  <emission>
                     <color>0.000000 0.000000 0.000000 1</color>
                  </emission>
                  <ambient>
                     <color>0.000000 0.000000 0.000000 1</color>
                  </ambient>
                  <diffuse>
                     <color>1.000000 1.000000 1.000000 1</color>
                  </diffuse>
                  <specular>
                     <color>0.330000 0.330000 0.330000 1</color>
                  </specular>
                  <shininess>
                     <float>20.000000</float>
                  </shininess>
                  <reflectivity>
                     <float>0.100000</float>
                  </reflectivity>
                  <transparent>
                     <color>1 1 1 1</color>
                  </transparent>
                  <transparency>
                     <float>0.000000</float>
                  </transparency>
               </phong>
            </technique>
            <extra>
               <technique profile="GOOGLEEARTH">
                  <double_sided>1</double_sided>
               </technique>
            </extra>
         </profile_COMMON>
      </effect>
   </library_effects>
   <library_geometries>
      <geometry id="mesh1-geometry" name="mesh1-geometry">
         <mesh>
            <source id="mesh1-geometry-position">
               <float_array id="mesh1-geometry-position-array" count="216">11.425556 -1.131614 24.000000 11.400000 1.997500 24.000000 11.400000 -0.937500 24.000000 11.749135 1.997500 24.000000 11.500481 -1.312500 24.000000 11.500481 -1.312500 12.000000 11.425556 -1.131614 12.000000 11.400000 -0.937500 12.000000 11.400000 1.997500 12.000000 11.749135 1.997500 12.000000 11.759443 1.997500 12.000000 11.759443 1.997500 24.000000 11.759443 1.810000 24.000000 11.771792 -0.888553 24.000000 11.775000 -1.587019 24.000000 11.619670 -1.467830 24.000000 11.619670 -1.467830 12.000000 11.775000 -1.587019 12.000000 11.771792 -0.888553 12.000000 11.759443 1.810000 12.000000 13.756943 1.997500 12.000000 13.756943 1.997500 24.000000 13.569443 1.810000 24.000000 13.569443 1.810000 12.000000 13.569443 0.000000 12.000000 13.756943 0.000000 12.000000 13.756943 0.000000 24.000000 13.569443 0.000000 24.000000 11.790903 -1.033720 24.000000 11.790903 -1.033720 12.000000 11.828043 -1.123382 24.000000 11.828043 -1.123382 12.000000 11.887123 -1.200377 24.000000 11.887123 -1.200377 12.000000 11.964118 -1.259457 12.000000 11.964118 -1.259457 24.000000 11.955886 -1.661944 24.000000 11.955886 -1.661944 12.000000 12.150000 -1.687500 12.000000 12.053780 -1.296597 12.000000 12.053780 -1.296597 24.000000 12.150000 -1.687500 24.000000 12.344114 -1.661944 24.000000 12.344114 -1.661944 12.000000 12.246220 -1.296597 12.000000 12.150000 -1.309264 12.000000 12.150000 -1.309264 24.000000 12.246220 -1.296597 24.000000 12.335882 -1.259457 24.000000 12.412877 -1.200377 24.000000 12.525000 -1.587019 24.000000 12.525000 -1.587019 12.000000 12.412877 -1.200377 12.000000 12.335882 -1.259457 12.000000 12.471957 -1.123382 24.000000 12.471957 -1.123382 12.000000 12.509097 -1.033720 24.000000 12.509097 -1.033720 12.000000 12.528208 -0.888553 24.000000 12.528208 -0.888553 12.000000 12.525000 -0.187500 24.000000 12.525000 -0.187500 12.000000 12.900000 -0.187500 12.000000 12.900000 -0.187500 24.000000 12.680330 -1.467830 24.000000 12.680330 -1.467830 12.000000 12.799519 -1.312500 12.000000 12.874444 -1.131614 12.000000 12.900000 -0.937500 12.000000 12.900000 -0.937500 24.000000 12.874444 -1.131614 24.000000 12.799519 -1.312500 24.000000 </float_array>
               <technique_common>
                  <accessor source="#mesh1-geometry-position-array" count="72" stride="3">
                     <param name="X" type="float"/>
                     <param name="Y" type="float"/>
                     <param name="Z" type="float"/>
                  </accessor>
               </technique_common>
            </source>
            <source id="mesh1-geometry-normal">
               <float_array id="mesh1-geometry-normal-array" count="114">0.000000 0.000000 1.000000 -0.965926 -0.258819 0.000000 -0.866025 -0.500000 -0.000000 -0.991445 -0.130526 0.000000 -1.000000 0.000000 0.000000 0.000000 1.000000 0.000000 0.000000 1.000000 0.000000 -0.707107 -0.707107 -0.000000 -0.000000 0.000000 -1.000000 1.000000 0.000000 0.000000 0.000000 -1.000000 0.000000 0.000000 0.000000 -1.000000 -1.000000 0.000000 0.000000 0.999990 0.004576 0.000000 0.965926 0.258819 -0.000000 0.991445 0.130526 -0.000000 0.866025 0.500000 0.000000 0.707107 0.707107 0.000000 0.500000 0.866025 0.000000 -0.500000 -0.866025 -0.000000 -0.258819 -0.965926 -0.000000 0.258819 0.965926 0.000000 0.000000 -1.000000 -0.000000 0.258819 -0.965926 -0.000000 0.000000 1.000000 0.000000 0.500000 -0.866025 -0.000000 -0.258819 0.965926 0.000000 -0.500000 0.866025 0.000000 -0.707107 0.707107 0.000000 -0.866025 0.500000 0.000000 -0.965926 0.258819 0.000000 -0.991445 0.130526 0.000000 -0.999990 -0.004576 0.000000 0.707107 -0.707107 -0.000000 1.000000 0.000000 -0.000000 0.866025 -0.500000 -0.000000 0.965926 -0.258819 -0.000000 0.991445 -0.130526 -0.000000 </float_array>
               <technique_common>
                  <accessor source="#mesh1-geometry-normal-array" count="38" stride="3">
                     <param name="X" type="float"/>
                     <param name="Y" type="float"/>
                     <param name="Z" type="float"/>
                  </accessor>
               </technique_common>
            </source>
            <source id="mesh1-geometry-uv">
               <float_array id="mesh1-geometry-uv-array" count="422">0.001420 0.030883 0.000000 0.204722 0.000000 0.041667 0.019396 0.204722 0.005582 0.020833 -0.027988 0.666667 -0.017111 0.000000 -0.017111 0.666667 -0.027988 0.000000 -0.041310 0.666667 -0.030433 0.000000 -0.030433 0.666667 -0.041310 0.000000 -0.204722 0.666667 -0.041667 0.000000 -0.041667 0.666667 -0.204722 0.000000 0.000000 0.666667 -0.019396 -0.000000 0.000000 -0.000000 -0.019396 0.666667 -0.019969 0.000000 -0.019396 0.000000 -0.019969 0.666667 0.019969 0.204722 0.019969 0.194306 0.020655 0.044386 0.020833 0.005582 0.012204 0.012204 -0.013130 0.666667 -0.002253 0.000000 -0.002253 0.666667 -0.013130 0.000000 -0.005582 0.020833 -0.019396 0.204722 -0.012204 0.012204 -0.001420 0.030883 0.000000 0.041667 -0.020833 0.005582 -0.020655 0.044386 -0.019969 0.194306 -0.019969 0.204722 0.204722 0.000000 0.194306 0.666667 0.194306 0.000000 0.204722 0.666667 -0.130941 0.000000 -0.130941 0.666667 0.120525 0.194306 0.130941 0.204722 0.019969 0.000000 0.120525 0.666667 0.019969 0.666667 0.120525 0.000000 -0.130941 0.204722 -0.120525 0.194306 -0.120525 0.093750 -0.130941 0.093750 0.093750 0.666667 0.093750 0.000000 0.130941 0.093750 0.120525 0.093750 -0.194306 0.666667 -0.093750 0.000000 -0.093750 0.666667 -0.194306 0.000000 0.130941 0.666667 0.130941 0.000000 0.044291 0.666667 0.194212 0.000000 0.194212 0.666667 0.044291 0.000000 0.033176 0.666667 0.041310 0.000000 0.041310 0.666667 0.033176 0.000000 0.019854 0.666667 0.025246 0.000000 0.025246 0.666667 0.019854 0.000000 0.004995 0.666667 0.010387 0.000000 0.010387 0.666667 0.004995 0.000000 -0.004995 0.666667 -0.010387 0.000000 -0.004995 0.000000 -0.010387 0.666667 0.027062 0.027062 0.030883 0.001420 0.031340 0.023780 0.023780 0.031340 0.021717 0.036321 0.017111 0.000000 0.027988 0.666667 0.017111 0.666667 0.027988 0.000000 -0.021717 0.036321 -0.030883 0.001420 -0.023780 0.031340 -0.027062 0.027062 -0.031340 0.023780 -0.041667 0.000000 -0.036321 0.021717 -0.019854 0.666667 -0.025246 0.000000 -0.019854 0.000000 -0.025246 0.666667 0.041667 0.000000 0.036321 0.021717 0.030433 0.000000 0.041310 0.666667 0.030433 0.666667 0.041310 0.000000 0.041310 0.000000 0.052187 0.666667 0.052187 0.000000 -0.047012 0.021717 -0.052451 0.001420 -0.041667 0.021013 -0.033176 0.666667 -0.038567 0.000000 -0.033176 0.000000 -0.038567 0.666667 0.041667 0.021013 0.052451 0.001420 0.047012 0.021717 0.051993 0.023780 0.056271 0.027062 0.062500 0.005582 0.049002 0.000000 0.059879 0.666667 0.049002 0.666667 0.059879 0.000000 -0.056271 0.027062 -0.062500 0.005582 -0.051993 0.023780 -0.051744 0.666667 -0.057136 0.000000 -0.051744 0.000000 -0.057136 0.666667 -0.055726 0.666667 -0.061117 0.000000 -0.055726 0.000000 -0.061117 0.666667 -0.061117 0.666667 -0.055726 0.000000 -0.055726 0.666667 -0.061117 0.000000 -0.057136 0.666667 -0.051744 0.000000 -0.051744 0.666667 -0.057136 0.000000 -0.052187 0.666667 -0.044053 0.000000 -0.044053 0.666667 -0.052187 0.000000 -0.083046 0.666667 -0.044099 0.000000 -0.044099 0.666667 -0.083046 0.000000 -0.062500 0.666667 -0.083333 0.000000 -0.062500 0.000000 -0.083333 0.666667 0.062678 0.044386 0.083333 0.083333 0.062500 0.083333 0.071129 0.012204 0.061616 0.036321 0.059553 0.031340 0.052983 0.000000 0.063860 0.666667 0.052983 0.666667 0.063860 0.000000 -0.062678 0.044386 -0.071129 0.012204 -0.061616 0.036321 -0.059553 0.031340 -0.083333 0.083333 -0.062500 0.083333 -0.077751 0.020833 -0.081914 0.030883 -0.083333 0.041667 0.083333 0.000000 0.041667 0.666667 0.041667 0.000000 0.083333 0.666667 0.081914 0.030883 0.083333 0.041667 0.077751 0.020833 0.052983 0.666667 0.063860 0.000000 0.063860 0.666667 0.052983 0.000000 0.059879 0.000000 0.049002 0.666667 0.049002 0.000000 0.059879 0.666667 0.052187 0.000000 0.041310 0.666667 0.041310 0.000000 0.052187 0.666667 -0.049445 0.000000 -0.044053 0.666667 -0.049445 0.666667 -0.044053 0.000000 0.013130 0.666667 0.002253 0.000000 0.013130 0.000000 0.002253 0.666667 </float_array>
               <technique_common>
                  <accessor source="#mesh1-geometry-uv-array" count="211" stride="2">
                     <param name="S" type="float"/>
                     <param name="T" type="float"/>
                  </accessor>
               </technique_common>
            </source>
            <vertices id="mesh1-geometry-vertex">
               <input semantic="POSITION" source="#mesh1-geometry-position"/>
            </vertices>
            <triangles material="material0" count="142">
               <input semantic="VERTEX" source="#mesh1-geometry-vertex" offset="0"/>
               <input semantic="NORMAL" source="#mesh1-geometry-normal" offset="1"/>
               <input semantic="TEXCOORD" source="#mesh1-geometry-uv" offset="2" set="0"/>
               <p>0 0 0 1 0 1 2 0 2 1 0 1 0 0 0 3 0 3 3 0 3 0 0 0 4 0 4 0 1 5 5 2 6 4 2 7 5 2 6 0 1 5 6 1 8 2 3 9 6 1 10 0 1 11 6 1 10 2 3 9 7 3 12 1 4 13 7 4 14 2 4 15 7 4 14 1 4 13 8 4 16 1 5 17 9 5 18 8 5 19 9 5 18 1 5 17 3 5 20 3 6 20 10 6 21 9 6 22 10 6 21 3 6 20 11 6 23 11 0 24 3 0 3 12 0 25 3 0 3 13 0 26 12 0 25 3 0 3 14 0 27 13 0 26 3 0 3 15 0 28 14 0 27 3 0 3 4 0 4 15 0 28 4 2 29 16 7 30 15 7 31 16 7 30 4 2 29 5 2 32 5 8 33 9 8 34 16 8 35 6 8 36 9 8 34 5 8 33 7 8 37 9 8 34 6 8 36 9 8 34 7 8 37 8 8 1 16 8 35 9 8 34 17 8 38 17 8 38 9 8 34 18 8 39 18 8 39 9 8 34 19 8 40 19 8 40 9 8 34 10 8 41 10 9 42 12 9 43 19 9 44 12 9 43 10 9 42 11 9 45 11 6 23 20 6 46 10 6 21 20 6 46 11 6 23 21 6 47 11 0 24 22 0 48 21 0 49 22 0 48 11 0 24 12 0 25 19 10 50 22 10 51 12 10 52 22 10 51 19 10 50 23 10 53 19 11 40 20 11 54 23 11 55 20 11 54 19 11 40 10 11 41 23 11 55 20 11 54 24 11 56 24 11 56 20 11 54 25 11 57 20 9 42 26 9 58 25 9 59 26 9 58 20 9 42 21 9 45 21 0 49 22 0 48 26 0 60 26 0 60 22 0 48 27 0 61 22 12 62 24 12 63 27 12 64 24 12 63 22 12 62 23 12 65 24 10 53 26 10 66 27 10 51 26 10 66 24 10 53 25 10 67 13 13 68 19 13 69 12 13 70 19 13 69 13 13 68 18 13 71 28 14 72 18 15 73 13 15 74 18 15 73 28 14 72 29 14 75 30 16 76 29 14 77 28 14 78 29 14 77 30 16 76 31 16 79 32 17 80 31 16 81 30 16 82 31 16 81 32 17 80 33 17 83 32 17 84 34 18 85 33 17 86 34 18 85 32 17 84 35 18 87 32 0 88 36 0 89 35 0 90 30 0 91 36 0 89 32 0 88 28 0 92 36 0 89 30 0 91 28 0 92 14 0 27 36 0 89 13 0 26 14 0 27 28 0 92 17 19 93 36 20 94 14 19 95 36 20 94 17 19 93 37 20 96 17 8 38 29 8 97 37 8 98 17 8 38 18 8 39 29 8 97 37 8 98 29 8 97 31 8 99 37 8 98 31 8 99 33 8 100 37 8 98 33 8 100 34 8 101 37 8 98 34 8 101 38 8 102 38 8 102 34 8 101 39 8 103 35 18 104 39 21 105 34 18 106 39 21 105 35 18 104 40 21 107 35 0 90 41 0 108 40 0 109 35 0 90 36 0 89 41 0 108 37 20 110 41 22 111 36 20 112 41 22 111 37 20 110 38 22 113 38 22 114 42 23 115 41 22 111 42 23 115 38 22 114 43 23 116 38 8 102 44 8 117 43 8 118 38 8 102 45 8 119 44 8 117 38 8 102 39 8 103 45 8 119 40 21 120 45 24 121 39 21 122 45 24 121 40 21 120 46 24 123 40 0 109 41 0 108 46 0 124 46 0 124 41 0 108 42 0 125 46 0 124 42 0 125 47 0 126 47 0 126 42 0 125 48 0 127 48 0 127 42 0 125 49 0 128 49 0 128 42 0 125 50 0 129 43 23 130 50 25 131 42 23 132 50 25 131 43 23 130 51 25 133 43 8 118 52 8 134 51 8 135 43 8 118 53 8 136 52 8 134 43 8 118 44 8 117 53 8 136 47 26 137 53 27 138 44 26 139 53 27 138 47 26 137 48 27 140 48 27 141 52 28 142 53 27 143 52 28 142 48 27 141 49 28 144 54 29 145 52 28 146 49 28 147 52 28 146 54 29 145 55 29 148 56 30 149 55 29 150 54 29 151 55 29 150 56 30 149 57 30 152 58 31 153 57 30 154 56 30 155 57 30 154 58 31 153 59 31 156 60 32 157 59 32 158 58 32 159 59 32 158 60 32 157 61 32 160 60 5 161 62 5 162 61 5 163 62 5 162 60 5 161 63 5 164 58 0 165 63 0 166 60 0 167 63 0 166 58 0 165 64 0 168 58 0 165 50 0 129 64 0 168 56 0 169 50 0 129 58 0 165 54 0 170 50 0 129 56 0 169 49 0 128 50 0 129 54 0 170 51 25 171 64 33 172 50 25 173 64 33 172 51 25 171 65 33 174 51 8 135 59 8 175 65 8 176 51 8 135 57 8 177 59 8 175 51 8 135 55 8 178 57 8 177 51 8 135 52 8 134 55 8 178 59 8 175 62 8 179 65 8 176 62 8 179 59 8 175 61 8 180 65 8 176 62 8 179 66 8 181 66 8 181 62 8 179 67 8 182 67 8 182 62 8 179 68 8 183 62 34 184 69 34 185 68 34 186 69 34 185 62 34 184 63 34 187 63 0 166 70 0 188 69 0 189 63 0 166 71 0 190 70 0 188 63 0 166 64 0 168 71 0 190 64 33 191 66 35 192 71 35 193 66 35 192 64 33 191 65 33 194 67 36 195 71 35 196 66 35 197 71 35 196 67 36 195 70 36 198 68 37 199 70 36 200 67 36 201 70 36 200 68 37 199 69 37 202 44 26 203 46 24 204 47 26 205 46 24 204 44 26 203 45 24 206 14 19 207 16 7 208 17 19 209 16 7 208 14 19 207 15 7 210 </p>
            </triangles>
         </mesh>
      </geometry>
      <geometry id="mesh2-geometry" name="mesh2-geometry">
         <mesh>
            <source id="mesh2-geometry-position">
               <float_array id="mesh2-geometry-position-array" count="216">11.775000 -1.587019 12.000000 11.955886 -1.661944 12.000000 11.619670 -1.467830 12.000000 11.500481 -1.312500 12.000000 11.425556 -1.131614 12.000000 11.400000 -0.937500 12.000000 11.400000 1.997500 12.000000 11.400000 -0.937500 24.000000 11.425556 -1.131614 24.000000 11.400000 1.997500 24.000000 11.749135 1.997500 12.000000 11.749135 1.997500 24.000000 11.759443 1.997500 12.000000 13.756943 1.997500 12.000000 11.759443 1.810000 12.000000 11.771792 -0.888553 12.000000 11.790903 -1.033720 12.000000 11.771792 -0.888553 24.000000 11.759443 1.810000 24.000000 11.790903 -1.033720 24.000000 11.828043 -1.123382 24.000000 11.887123 -1.200377 24.000000 11.964118 -1.259457 24.000000 12.053780 -1.296597 24.000000 12.150000 -1.309264 24.000000 12.246220 -1.296597 24.000000 12.335882 -1.259457 24.000000 12.412877 -1.200377 24.000000 12.471957 -1.123382 24.000000 12.509097 -1.033720 24.000000 12.528208 -0.888553 24.000000 12.525000 -0.187500 24.000000 12.900000 -0.187500 24.000000 12.900000 -0.937500 24.000000 12.874444 -1.131614 24.000000 12.799519 -1.312500 24.000000 12.680330 -1.467830 24.000000 12.525000 -1.587019 24.000000 12.344114 -1.661944 24.000000 12.150000 -1.687500 24.000000 11.955886 -1.661944 24.000000 11.775000 -1.587019 24.000000 11.619670 -1.467830 24.000000 11.500481 -1.312500 24.000000 12.900000 -0.937500 12.000000 12.900000 -0.187500 12.000000 12.874444 -1.131614 12.000000 12.799519 -1.312500 12.000000 12.680330 -1.467830 12.000000 12.525000 -1.587019 12.000000 12.344114 -1.661944 12.000000 12.150000 -1.687500 12.000000 12.525000 -0.187500 12.000000 12.528208 -0.888553 12.000000 12.509097 -1.033720 12.000000 12.471957 -1.123382 12.000000 12.412877 -1.200377 12.000000 12.335882 -1.259457 12.000000 12.246220 -1.296597 12.000000 12.150000 -1.309264 12.000000 12.053780 -1.296597 12.000000 11.964118 -1.259457 12.000000 11.887123 -1.200377 12.000000 11.828043 -1.123382 12.000000 13.569443 1.810000 24.000000 11.759443 1.997500 24.000000 13.569443 1.810000 12.000000 13.569443 0.000000 12.000000 13.569443 0.000000 24.000000 13.756943 0.000000 24.000000 13.756943 0.000000 12.000000 13.756943 1.997500 24.000000 </float_array>
               <technique_common>
                  <accessor source="#mesh2-geometry-position-array" count="72" stride="3">
                     <param name="X" type="float"/>
                     <param name="Y" type="float"/>
                     <param name="Z" type="float"/>
                  </accessor>
               </technique_common>
            </source>
            <vertices id="mesh2-geometry-vertex">
               <input semantic="POSITION" source="#mesh2-geometry-position"/>
            </vertices>
            <lines material="ForegroundColor" count="88">
               <input semantic="VERTEX" source="#mesh2-geometry-vertex" offset="0"/>
               <p>0 1 2 0 3 2 4 3 5 4 5 6 5 7 7 8 7 9 6 9 6 10 10 11 12 10 12 13 14 12 15 14 15 16 15 17 17 18 17 19 19 20 20 21 21 22 22 23 23 24 24 25 25 26 26 27 27 28 28 29 29 30 31 30 32 31 33 32 34 33 35 34 36 35 37 36 38 37 39 38 40 39 41 40 42 41 43 42 8 43 44 33 44 45 46 44 47 46 48 47 49 48 50 49 51 50 1 51 45 52 45 32 52 53 52 31 54 53 55 54 56 55 57 56 58 57 59 58 60 59 61 60 62 61 63 62 16 63 53 30 18 64 18 65 14 18 14 66 66 67 66 64 64 68 68 69 67 68 67 70 70 13 70 69 69 71 65 71 12 65 65 11 9 11 13 71 </p>
            </lines>
         </mesh>
      </geometry>
      <geometry id="mesh3-geometry" name="mesh3-geometry">
         <mesh>
            <source id="mesh3-geometry-position">
               <float_array id="mesh3-geometry-position-array" count="216">13.341817 158.131614 24.000000 13.367373 155.002500 24.000000 13.367373 157.937500 24.000000 13.018238 155.002500 24.000000 13.266892 158.312500 24.000000 13.266892 158.312500 12.000000 13.341817 158.131614 12.000000 13.367373 157.937500 12.000000 13.367373 155.002500 12.000000 13.018238 155.002500 12.000000 13.007930 155.002500 12.000000 13.007930 155.002500 24.000000 13.007930 155.190000 24.000000 12.995581 157.888553 24.000000 12.992373 158.587019 24.000000 13.147703 158.467830 24.000000 13.147703 158.467830 12.000000 12.992373 158.587019 12.000000 12.995581 157.888553 12.000000 13.007930 155.190000 12.000000 11.010430 155.002500 12.000000 11.010430 155.002500 24.000000 11.197930 155.190000 24.000000 11.197930 155.190000 12.000000 11.197930 157.000000 12.000000 11.010430 157.000000 12.000000 11.010430 157.000000 24.000000 11.197930 157.000000 24.000000 12.976469 158.033720 24.000000 12.976469 158.033720 12.000000 12.939330 158.123382 24.000000 12.939330 158.123382 12.000000 12.880250 158.200377 24.000000 12.880250 158.200377 12.000000 12.803255 158.259457 12.000000 12.803255 158.259457 24.000000 12.811487 158.661944 24.000000 12.811487 158.661944 12.000000 12.617373 158.687500 12.000000 12.713593 158.296597 12.000000 12.713593 158.296597 24.000000 12.617373 158.687500 24.000000 12.423259 158.661944 24.000000 12.423259 158.661944 12.000000 12.521153 158.296597 12.000000 12.617373 158.309264 12.000000 12.617373 158.309264 24.000000 12.521153 158.296597 24.000000 12.431491 158.259457 24.000000 12.354496 158.200377 24.000000 12.242373 158.587019 24.000000 12.242373 158.587019 12.000000 12.354496 158.200377 12.000000 12.431491 158.259457 12.000000 12.295416 158.123382 24.000000 12.295416 158.123382 12.000000 12.258276 158.033720 24.000000 12.258276 158.033720 12.000000 12.239165 157.888553 24.000000 12.239165 157.888553 12.000000 12.242373 157.187500 24.000000 12.242373 157.187500 12.000000 11.867373 157.187500 12.000000 11.867373 157.187500 24.000000 12.087043 158.467830 24.000000 12.087043 158.467830 12.000000 11.967854 158.312500 12.000000 11.892929 158.131614 12.000000 11.867373 157.937500 12.000000 11.867373 157.937500 24.000000 11.892929 158.131614 24.000000 11.967854 158.312500 24.000000 </float_array>
               <technique_common>
                  <accessor source="#mesh3-geometry-position-array" count="72" stride="3">
                     <param name="X" type="float"/>
                     <param name="Y" type="float"/>
                     <param name="Z" type="float"/>
                  </accessor>
               </technique_common>
            </source>
            <source id="mesh3-geometry-normal">
               <float_array id="mesh3-geometry-normal-array" count="114">0.000000 0.000000 1.000000 0.965926 0.258819 0.000000 0.866025 0.500000 -0.000000 0.991445 0.130526 0.000000 1.000000 0.000000 0.000000 0.000000 -1.000000 0.000000 0.000000 -1.000000 0.000000 0.707107 0.707107 -0.000000 0.000000 -0.000000 -1.000000 -1.000000 0.000000 0.000000 0.000000 1.000000 0.000000 0.000000 0.000000 -1.000000 1.000000 0.000000 0.000000 -0.999990 -0.004576 0.000000 -0.965926 -0.258819 -0.000000 -0.991445 -0.130526 -0.000000 -0.866025 -0.500000 0.000000 -0.707107 -0.707107 0.000000 -0.500000 -0.866025 0.000000 0.500000 0.866025 -0.000000 0.258819 0.965926 -0.000000 -0.258819 -0.965926 0.000000 0.000000 1.000000 -0.000000 -0.258819 0.965926 -0.000000 0.000000 -1.000000 0.000000 -0.500000 0.866025 -0.000000 0.258819 -0.965926 0.000000 0.500000 -0.866025 0.000000 0.707107 -0.707107 0.000000 0.866025 -0.500000 0.000000 0.965926 -0.258819 0.000000 0.991445 -0.130526 0.000000 0.999990 0.004576 0.000000 -0.707107 0.707107 -0.000000 -1.000000 0.000000 -0.000000 -0.866025 0.500000 -0.000000 -0.965926 0.258819 -0.000000 -0.991445 0.130526 -0.000000 </float_array>
               <technique_common>
                  <accessor source="#mesh3-geometry-normal-array" count="38" stride="3">
                     <param name="X" type="float"/>
                     <param name="Y" type="float"/>
                     <param name="Z" type="float"/>
                  </accessor>
               </technique_common>
            </source>
            <source id="mesh3-geometry-uv">
               <float_array id="mesh3-geometry-uv-array" count="422">0.001420 0.030883 0.000000 0.204722 0.000000 0.041667 0.019396 0.204722 0.005582 0.020833 -0.027988 0.666667 -0.017111 0.000000 -0.017111 0.666667 -0.027988 0.000000 -0.041310 0.666667 -0.030433 0.000000 -0.030433 0.666667 -0.041310 0.000000 -0.204722 0.666667 -0.041667 0.000000 -0.041667 0.666667 -0.204722 0.000000 0.000000 0.666667 -0.019396 -0.000000 0.000000 -0.000000 -0.019396 0.666667 -0.019969 0.000000 -0.019396 0.000000 -0.019969 0.666667 0.019969 0.204722 0.019969 0.194306 0.020655 0.044386 0.020833 0.005582 0.012204 0.012204 -0.013130 0.666667 -0.002253 0.000000 -0.002253 0.666667 -0.013130 0.000000 -0.005582 0.020833 -0.019396 0.204722 -0.012204 0.012204 -0.001420 0.030883 0.000000 0.041667 -0.020833 0.005582 -0.020655 0.044386 -0.019969 0.194306 -0.019969 0.204722 0.204722 0.000000 0.194306 0.666667 0.194306 0.000000 0.204722 0.666667 -0.130941 0.000000 -0.130941 0.666667 0.120525 0.194306 0.130941 0.204722 0.019969 0.000000 0.120525 0.666667 0.019969 0.666667 0.120525 0.000000 -0.130941 0.204722 -0.120525 0.194306 -0.120525 0.093750 -0.130941 0.093750 0.093750 0.666667 0.093750 0.000000 0.130941 0.093750 0.120525 0.093750 -0.194306 0.666667 -0.093750 0.000000 -0.093750 0.666667 -0.194306 0.000000 0.130941 0.666667 0.130941 0.000000 0.044291 0.666667 0.194212 0.000000 0.194212 0.666667 0.044291 0.000000 0.033176 0.666667 0.041310 0.000000 0.041310 0.666667 0.033176 0.000000 0.019854 0.666667 0.025246 0.000000 0.025246 0.666667 0.019854 0.000000 0.004995 0.666667 0.010387 0.000000 0.010387 0.666667 0.004995 0.000000 -0.004995 0.666667 -0.010387 0.000000 -0.004995 0.000000 -0.010387 0.666667 0.027062 0.027062 0.030883 0.001420 0.031340 0.023780 0.023780 0.031340 0.021717 0.036321 0.017111 0.000000 0.027988 0.666667 0.017111 0.666667 0.027988 0.000000 -0.021717 0.036321 -0.030883 0.001420 -0.023780 0.031340 -0.027062 0.027062 -0.031340 0.023780 -0.041667 0.000000 -0.036321 0.021717 -0.019854 0.666667 -0.025246 0.000000 -0.019854 0.000000 -0.025246 0.666667 0.041667 0.000000 0.036321 0.021717 0.030433 0.000000 0.041310 0.666667 0.030433 0.666667 0.041310 0.000000 0.041310 0.000000 0.052187 0.666667 0.052187 0.000000 -0.047012 0.021717 -0.052451 0.001420 -0.041667 0.021013 -0.033176 0.666667 -0.038567 0.000000 -0.033176 0.000000 -0.038567 0.666667 0.041667 0.021013 0.052451 0.001420 0.047012 0.021717 0.051993 0.023780 0.056271 0.027062 0.062500 0.005582 0.049002 0.000000 0.059879 0.666667 0.049002 0.666667 0.059879 0.000000 -0.056271 0.027062 -0.062500 0.005582 -0.051993 0.023780 -0.051744 0.666667 -0.057136 0.000000 -0.051744 0.000000 -0.057136 0.666667 -0.055726 0.666667 -0.061117 0.000000 -0.055726 0.000000 -0.061117 0.666667 -0.061117 0.666667 -0.055726 0.000000 -0.055726 0.666667 -0.061117 0.000000 -0.057136 0.666667 -0.051744 0.000000 -0.051744 0.666667 -0.057136 0.000000 -0.052187 0.666667 -0.044053 0.000000 -0.044053 0.666667 -0.052187 0.000000 -0.083046 0.666667 -0.044099 0.000000 -0.044099 0.666667 -0.083046 0.000000 -0.062500 0.666667 -0.083333 0.000000 -0.062500 0.000000 -0.083333 0.666667 0.062678 0.044386 0.083333 0.083333 0.062500 0.083333 0.071129 0.012204 0.061616 0.036321 0.059553 0.031340 0.052983 0.000000 0.063860 0.666667 0.052983 0.666667 0.063860 0.000000 -0.062678 0.044386 -0.071129 0.012204 -0.061616 0.036321 -0.059553 0.031340 -0.083333 0.083333 -0.062500 0.083333 -0.077751 0.020833 -0.081914 0.030883 -0.083333 0.041667 0.083333 0.000000 0.041667 0.666667 0.041667 0.000000 0.083333 0.666667 0.081914 0.030883 0.083333 0.041667 0.077751 0.020833 0.052983 0.666667 0.063860 0.000000 0.063860 0.666667 0.052983 0.000000 0.059879 0.000000 0.049002 0.666667 0.049002 0.000000 0.059879 0.666667 0.052187 0.000000 0.041310 0.666667 0.041310 0.000000 0.052187 0.666667 -0.049445 0.000000 -0.044053 0.666667 -0.049445 0.666667 -0.044053 0.000000 0.013130 0.666667 0.002253 0.000000 0.013130 0.000000 0.002253 0.666667 </float_array>
               <technique_common>
                  <accessor source="#mesh3-geometry-uv-array" count="211" stride="2">
                     <param name="S" type="float"/>
                     <param name="T" type="float"/>
                  </accessor>
               </technique_common>
            </source>
            <vertices id="mesh3-geometry-vertex">
               <input semantic="POSITION" source="#mesh3-geometry-position"/>
            </vertices>
            <triangles material="material0" count="142">
               <input semantic="VERTEX" source="#mesh3-geometry-vertex" offset="0"/>
               <input semantic="NORMAL" source="#mesh3-geometry-normal" offset="1"/>
               <input semantic="TEXCOORD" source="#mesh3-geometry-uv" offset="2" set="0"/>
               <p>0 0 0 1 0 1 2 0 2 1 0 1 0 0 0 3 0 3 3 0 3 0 0 0 4 0 4 0 1 5 5 2 6 4 2 7 5 2 6 0 1 5 6 1 8 2 3 9 6 1 10 0 1 11 6 1 10 2 3 9 7 3 12 1 4 13 7 4 14 2 4 15 7 4 14 1 4 13 8 4 16 1 5 17 9 5 18 8 5 19 9 5 18 1 5 17 3 5 20 3 6 20 10 6 21 9 6 22 10 6 21 3 6 20 11 6 23 11 0 24 3 0 3 12 0 25 3 0 3 13 0 26 12 0 25 3 0 3 14 0 27 13 0 26 3 0 3 15 0 28 14 0 27 3 0 3 4 0 4 15 0 28 4 2 29 16 7 30 15 7 31 16 7 30 4 2 29 5 2 32 5 8 33 9 8 34 16 8 35 6 8 36 9 8 34 5 8 33 7 8 37 9 8 34 6 8 36 9 8 34 7 8 37 8 8 1 16 8 35 9 8 34 17 8 38 17 8 38 9 8 34 18 8 39 18 8 39 9 8 34 19 8 40 19 8 40 9 8 34 10 8 41 10 9 42 12 9 43 19 9 44 12 9 43 10 9 42 11 9 45 11 6 23 20 6 46 10 6 21 20 6 46 11 6 23 21 6 47 11 0 24 22 0 48 21 0 49 22 0 48 11 0 24 12 0 25 19 10 50 22 10 51 12 10 52 22 10 51 19 10 50 23 10 53 19 11 40 20 11 54 23 11 55 20 11 54 19 11 40 10 11 41 23 11 55 20 11 54 24 11 56 24 11 56 20 11 54 25 11 57 20 9 42 26 9 58 25 9 59 26 9 58 20 9 42 21 9 45 21 0 49 22 0 48 26 0 60 26 0 60 22 0 48 27 0 61 22 12 62 24 12 63 27 12 64 24 12 63 22 12 62 23 12 65 24 10 53 26 10 66 27 10 51 26 10 66 24 10 53 25 10 67 13 13 68 19 13 69 12 13 70 19 13 69 13 13 68 18 13 71 28 14 72 18 15 73 13 15 74 18 15 73 28 14 72 29 14 75 30 16 76 29 14 77 28 14 78 29 14 77 30 16 76 31 16 79 32 17 80 31 16 81 30 16 82 31 16 81 32 17 80 33 17 83 32 17 84 34 18 85 33 17 86 34 18 85 32 17 84 35 18 87 32 0 88 36 0 89 35 0 90 30 0 91 36 0 89 32 0 88 28 0 92 36 0 89 30 0 91 28 0 92 14 0 27 36 0 89 13 0 26 14 0 27 28 0 92 17 19 93 36 20 94 14 19 95 36 20 94 17 19 93 37 20 96 17 8 38 29 8 97 37 8 98 17 8 38 18 8 39 29 8 97 37 8 98 29 8 97 31 8 99 37 8 98 31 8 99 33 8 100 37 8 98 33 8 100 34 8 101 37 8 98 34 8 101 38 8 102 38 8 102 34 8 101 39 8 103 35 18 104 39 21 105 34 18 106 39 21 105 35 18 104 40 21 107 35 0 90 41 0 108 40 0 109 35 0 90 36 0 89 41 0 108 37 20 110 41 22 111 36 20 112 41 22 111 37 20 110 38 22 113 38 22 114 42 23 115 41 22 111 42 23 115 38 22 114 43 23 116 38 8 102 44 8 117 43 8 118 38 8 102 45 8 119 44 8 117 38 8 102 39 8 103 45 8 119 40 21 120 45 24 121 39 21 122 45 24 121 40 21 120 46 24 123 40 0 109 41 0 108 46 0 124 46 0 124 41 0 108 42 0 125 46 0 124 42 0 125 47 0 126 47 0 126 42 0 125 48 0 127 48 0 127 42 0 125 49 0 128 49 0 128 42 0 125 50 0 129 43 23 130 50 25 131 42 23 132 50 25 131 43 23 130 51 25 133 43 8 118 52 8 134 51 8 135 43 8 118 53 8 136 52 8 134 43 8 118 44 8 117 53 8 136 47 26 137 53 27 138 44 26 139 53 27 138 47 26 137 48 27 140 48 27 141 52 28 142 53 27 143 52 28 142 48 27 141 49 28 144 54 29 145 52 28 146 49 28 147 52 28 146 54 29 145 55 29 148 56 30 149 55 29 150 54 29 151 55 29 150 56 30 149 57 30 152 58 31 153 57 30 154 56 30 155 57 30 154 58 31 153 59 31 156 60 32 157 59 32 158 58 32 159 59 32 158 60 32 157 61 32 160 60 5 161 62 5 162 61 5 163 62 5 162 60 5 161 63 5 164 58 0 165 63 0 166 60 0 167 63 0 166 58 0 165 64 0 168 58 0 165 50 0 129 64 0 168 56 0 169 50 0 129 58 0 165 54 0 170 50 0 129 56 0 169 49 0 128 50 0 129 54 0 170 51 25 171 64 33 172 50 25 173 64 33 172 51 25 171 65 33 174 51 8 135 59 8 175 65 8 176 51 8 135 57 8 177 59 8 175 51 8 135 55 8 178 57 8 177 51 8 135 52 8 134 55 8 178 59 8 175 62 8 179 65 8 176 62 8 179 59 8 175 61 8 180 65 8 176 62 8 179 66 8 181 66 8 181 62 8 179 67 8 182 67 8 182 62 8 179 68 8 183 62 34 184 69 34 185 68 34 186 69 34 185 62 34 184 63 34 187 63 0 166 70 0 188 69 0 189 63 0 166 71 0 190 70 0 188 63 0 166 64 0 168 71 0 190 64 33 191 66 35 192 71 35 193 66 35 192 64 33 191 65 33 194 67 36 195 71 35 196 66 35 197 71 35 196 67 36 195 70 36 198 68 37 199 70 36 200 67 36 201 70 36 200 68 37 199 69 37 202 44 26 203 46 24 204 47 26 205 46 24 204 44 26 203 45 24 206 14 19 207 16 7 208 17 19 209 16 7 208 14 19 207 15 7 210 </p>
            </triangles>
         </mesh>
      </geometry>
      <geometry id="mesh4-geometry" name="mesh4-geometry">
         <mesh>
            <source id="mesh4-geometry-position">
               <float_array id="mesh4-geometry-position-array" count="216">12.992373 158.587019 12.000000 12.811487 158.661944 12.000000 13.147703 158.467830 12.000000 13.266892 158.312500 12.000000 13.341817 158.131614 12.000000 13.367373 157.937500 12.000000 13.367373 155.002500 12.000000 13.367373 157.937500 24.000000 13.341817 158.131614 24.000000 13.367373 155.002500 24.000000 13.018238 155.002500 12.000000 13.018238 155.002500 24.000000 13.007930 155.002500 12.000000 11.010430 155.002500 12.000000 13.007930 155.190000 12.000000 12.995581 157.888553 12.000000 12.976469 158.033720 12.000000 12.995581 157.888553 24.000000 13.007930 155.190000 24.000000 12.976469 158.033720 24.000000 12.939330 158.123382 24.000000 12.880250 158.200377 24.000000 12.803255 158.259457 24.000000 12.713593 158.296597 24.000000 12.617373 158.309264 24.000000 12.521153 158.296597 24.000000 12.431491 158.259457 24.000000 12.354496 158.200377 24.000000 12.295416 158.123382 24.000000 12.258276 158.033720 24.000000 12.239165 157.888553 24.000000 12.242373 157.187500 24.000000 11.867373 157.187500 24.000000 11.867373 157.937500 24.000000 11.892929 158.131614 24.000000 11.967854 158.312500 24.000000 12.087043 158.467830 24.000000 12.242373 158.587019 24.000000 12.423259 158.661944 24.000000 12.617373 158.687500 24.000000 12.811487 158.661944 24.000000 12.992373 158.587019 24.000000 13.147703 158.467830 24.000000 13.266892 158.312500 24.000000 11.867373 157.937500 12.000000 11.867373 157.187500 12.000000 11.892929 158.131614 12.000000 11.967854 158.312500 12.000000 12.087043 158.467830 12.000000 12.242373 158.587019 12.000000 12.423259 158.661944 12.000000 12.617373 158.687500 12.000000 12.242373 157.187500 12.000000 12.239165 157.888553 12.000000 12.258276 158.033720 12.000000 12.295416 158.123382 12.000000 12.354496 158.200377 12.000000 12.431491 158.259457 12.000000 12.521153 158.296597 12.000000 12.617373 158.309264 12.000000 12.713593 158.296597 12.000000 12.803255 158.259457 12.000000 12.880250 158.200377 12.000000 12.939330 158.123382 12.000000 11.197930 155.190000 24.000000 13.007930 155.002500 24.000000 11.197930 155.190000 12.000000 11.197930 157.000000 12.000000 11.197930 157.000000 24.000000 11.010430 157.000000 24.000000 11.010430 157.000000 12.000000 11.010430 155.002500 24.000000 </float_array>
               <technique_common>
                  <accessor source="#mesh4-geometry-position-array" count="72" stride="3">
                     <param name="X" type="float"/>
                     <param name="Y" type="float"/>
                     <param name="Z" type="float"/>
                  </accessor>
               </technique_common>
            </source>
            <vertices id="mesh4-geometry-vertex">
               <input semantic="POSITION" source="#mesh4-geometry-position"/>
            </vertices>
            <lines material="ForegroundColor" count="88">
               <input semantic="VERTEX" source="#mesh4-geometry-vertex" offset="0"/>
               <p>0 1 2 0 3 2 4 3 5 4 5 6 5 7 7 8 7 9 6 9 6 10 10 11 12 10 12 13 14 12 15 14 15 16 15 17 17 18 17 19 19 20 20 21 21 22 22 23 23 24 24 25 25 26 26 27 27 28 28 29 29 30 31 30 32 31 33 32 34 33 35 34 36 35 37 36 38 37 39 38 40 39 41 40 42 41 43 42 8 43 44 33 44 45 46 44 47 46 48 47 49 48 50 49 51 50 1 51 45 52 45 32 52 53 52 31 54 53 55 54 56 55 57 56 58 57 59 58 60 59 61 60 62 61 63 62 16 63 53 30 18 64 18 65 14 18 14 66 66 67 66 64 64 68 68 69 67 68 67 70 70 13 70 69 69 71 65 71 12 65 65 11 9 11 13 71 </p>
            </lines>
         </mesh>
      </geometry>
      <geometry id="mesh5-geometry" name="mesh5-geometry">
         <mesh>
            <source id="mesh5-geometry-position">
               <float_array id="mesh5-geometry-position-array" count="216">13.001756 157.000000 35.430000 13.367373 157.000000 24.000000 13.001756 157.000000 24.000000 15.650000 157.000000 35.430000 17.800000 157.000000 12.800000 13.367373 157.000000 12.000000 24.800000 157.000000 3.000000 13.001756 157.000000 12.000000 24.800000 157.000000 0.000000 13.001756 157.000000 0.000000 13.001756 155.190000 0.000000 13.569443 1.810000 0.000000 24.800000 0.000000 0.000000 13.569443 0.000000 0.000000 24.800000 0.000000 3.000000 13.569443 0.000000 12.000000 13.756943 0.000000 12.000000 17.800000 0.000000 12.800000 13.756943 0.000000 24.000000 15.650000 0.000000 35.430000 13.569443 1.747500 35.430000 13.001756 155.190000 35.430000 11.761893 1.747500 35.430000 11.197930 155.190000 35.430000 11.761893 0.000000 35.430000 9.150000 157.000000 35.430000 9.150000 0.000000 35.430000 7.000000 0.000000 12.800000 7.000000 157.000000 12.800000 11.010430 157.000000 24.000000 11.010430 157.000000 12.000000 -0.000000 157.000000 3.000000 11.197930 157.000000 12.000000 11.197930 157.000000 0.000000 0.000000 157.000000 0.000000 0.000000 0.000000 0.000000 11.197930 155.190000 0.000000 11.197930 155.190000 12.000000 11.197930 155.002500 12.000000 11.010430 155.002500 12.000000 11.010430 155.002500 24.000000 11.010430 155.190000 24.000000 11.197930 157.000000 24.000000 11.197930 155.190000 24.000000 11.197930 157.000000 35.430000 13.001756 155.190000 24.000000 13.001756 155.002500 24.000000 13.367373 155.002500 24.000000 13.367373 155.002500 12.000000 13.001756 155.190000 12.000000 13.001756 155.002500 12.000000 11.763342 1.810000 0.000000 11.763342 -0.000000 0.000000 -0.000000 0.000000 3.000000 11.763342 -0.000000 12.000000 11.763342 1.810000 12.000000 13.569443 1.810000 12.000000 13.756943 1.810000 12.000000 13.756943 1.997500 24.000000 13.569443 1.747500 24.000000 13.569443 0.000000 24.000000 13.569443 0.000000 35.430000 11.761893 1.747500 24.000000 11.761893 0.000000 24.000000 11.400000 0.000000 24.000000 11.400000 0.000000 12.000000 11.400000 1.810000 12.000000 13.756943 1.997500 12.000000 11.400000 1.997500 12.000000 11.400000 1.997500 24.000000 13.569443 1.997500 24.000000 11.761893 1.997500 24.000000 </float_array>
               <technique_common>
                  <accessor source="#mesh5-geometry-position-array" count="72" stride="3">
                     <param name="X" type="float"/>
                     <param name="Y" type="float"/>
                     <param name="Z" type="float"/>
                  </accessor>
               </technique_common>
            </source>
            <source id="mesh5-geometry-normal">
               <float_array id="mesh5-geometry-normal-array" count="66">0.000000 1.000000 0.000000 0.000000 -0.000000 -1.000000 -0.000000 -1.000000 0.000000 0.995517 0.000000 0.094581 0.000000 0.000000 1.000000 -0.995517 0.000000 0.094581 1.000000 0.000000 0.000000 0.000000 0.000000 -1.000000 -1.000000 0.000000 0.000000 0.000000 -1.000000 0.000000 1.000000 -0.000000 0.000000 -0.000000 -1.000000 0.000000 -1.000000 0.000000 0.000000 -1.000000 0.000000 -0.000000 -0.000000 -1.000000 -0.000000 -0.000000 0.000000 1.000000 -0.000000 -1.000000 0.000000 0.000000 0.000000 -1.000000 1.000000 -0.000000 0.000000 -0.813733 0.000000 0.581238 -1.000000 0.000000 -0.000000 0.813733 0.000000 0.581238 </float_array>
               <technique_common>
                  <accessor source="#mesh5-geometry-normal-array" count="22" stride="3">
                     <param name="X" type="float"/>
                     <param name="Y" type="float"/>
                     <param name="Z" type="float"/>
                  </accessor>
               </technique_common>
            </source>
            <source id="mesh5-geometry-uv">
               <float_array id="mesh5-geometry-uv-array" count="396">-1.083480 2.952500 -1.113948 2.000000 -1.083480 2.000000 -1.304167 2.952500 -1.483333 1.066667 -1.113948 1.000000 -2.066667 0.250000 -1.083480 1.000000 -2.066667 0.000000 -1.083480 0.000000 -2.066667 13.083333 -1.083480 12.932500 -1.083480 13.083333 -1.130787 0.150833 -2.066667 0.000000 -1.130787 0.000000 2.066667 0.250000 1.130787 0.000000 2.066667 0.000000 1.130787 1.000000 1.146412 1.000000 1.483333 1.066667 1.146412 2.000000 1.304167 2.952500 13.083333 0.921590 0.000000 2.815915 0.000000 0.921590 13.083333 2.815915 1.304167 13.083333 1.130787 0.145625 1.304167 0.000000 1.083480 13.083333 1.083480 12.932500 0.980158 0.145625 0.933161 12.932500 0.980158 0.000000 0.762500 13.083333 0.762500 0.000000 -13.083333 3.011382 0.000000 1.117057 0.000000 3.011382 -13.083333 1.117057 -0.917536 2.000000 -0.583333 1.066667 -0.762500 2.952500 -0.917536 1.000000 0.000000 0.250000 -0.933161 1.000000 -0.933161 0.000000 -0.000000 0.000000 -0.933161 13.083333 -0.000000 0.000000 -0.000000 13.083333 -0.933161 12.932500 13.083333 0.000000 12.932500 1.000000 12.932500 0.000000 13.083333 1.000000 11.197930 157.000000 11.197930 155.002500 11.197930 155.190000 11.010430 157.000000 11.010430 155.002500 157.000000 12.000000 155.002500 24.000000 155.002500 12.000000 155.190000 24.000000 157.000000 24.000000 -11.197930 157.000000 -11.010430 155.190000 -11.010430 157.000000 -11.197930 155.190000 13.083333 2.000000 12.932500 2.952500 12.932500 2.000000 13.083333 2.952500 -0.933161 2.000000 -0.933161 2.952500 0.933161 13.083333 -13.083333 2.952500 -12.932500 2.000000 -12.932500 2.952500 -13.083333 2.000000 -13.367373 157.000000 -13.001756 155.190000 -13.001756 157.000000 -13.001756 155.002500 -13.367373 155.002500 -157.000000 24.000000 -155.002500 12.000000 -155.002500 24.000000 -157.000000 12.000000 13.001756 157.000000 13.367373 155.002500 13.367373 157.000000 13.001756 155.190000 13.001756 155.002500 -11.197930 12.000000 -11.010430 24.000000 -13.001756 12.000000 -11.010430 12.000000 -13.367373 12.000000 -13.367373 24.000000 -13.001756 24.000000 -11.010430 155.002500 -0.980279 0.150833 -0.980279 -0.000000 0.980279 0.000000 -0.000000 0.250000 0.000000 0.000000 0.980279 1.000000 0.150833 0.000000 0.000000 1.000000 0.000000 -0.000000 0.150833 1.000000 0.980279 0.000000 1.130787 0.000000 -0.000000 0.000000 -0.150833 1.000000 -0.150833 0.000000 -0.000000 1.000000 13.756943 0.000000 13.569443 1.810000 13.569443 0.000000 13.756943 1.810000 -0.000000 24.000000 -1.810000 12.000000 -0.000000 12.000000 -1.997500 24.000000 -13.756943 0.000000 -13.569443 1.747500 -13.756943 1.997500 -13.569443 0.000000 1.130787 2.000000 1.130787 2.952500 1.130787 0.000000 -0.145625 2.952500 -0.000000 2.000000 0.000000 2.952500 -0.145625 2.000000 0.980158 2.000000 0.980158 2.952500 0.145625 2.000000 0.145625 2.952500 0.000000 2.000000 0.980158 2.952500 0.950000 2.000000 0.980158 2.000000 0.762500 2.952500 0.583333 1.066667 0.950000 1.000000 11.763342 -0.000000 11.400000 1.810000 11.400000 -0.000000 11.763342 1.810000 13.756943 1.997500 11.400000 1.997500 13.756943 24.000000 11.400000 12.000000 13.756943 12.000000 11.400000 24.000000 13.569443 24.000000 -13.569443 1.997500 -11.761893 1.747500 -13.569443 1.997500 -13.569443 1.747500 -11.761893 1.997500 -11.761893 0.000000 -11.761893 1.997500 -11.761893 1.747500 -11.400000 0.000000 -11.400000 1.997500 0.000000 24.000000 1.810000 12.000000 1.997500 24.000000 0.000000 12.000000 1.997500 12.000000 11.761893 24.000000 -1.997500 12.000000 -13.083333 1.207038 0.000000 0.203433 0.000000 1.207038 -13.083333 0.203433 -13.083333 0.250000 0.000000 -0.000000 0.000000 0.250000 -13.083333 -0.000000 -13.083333 1.000000 -12.932500 0.000000 -12.932500 1.000000 -13.083333 0.000000 0.000000 0.005812 13.083333 -0.997792 13.083333 0.005812 0.000000 -0.997792 0.000000 0.250000 13.083333 0.250000 0.000000 0.000000 </float_array>
               <technique_common>
                  <accessor source="#mesh5-geometry-uv-array" count="198" stride="2">
                     <param name="S" type="float"/>
                     <param name="T" type="float"/>
                  </accessor>
               </technique_common>
            </source>
            <vertices id="mesh5-geometry-vertex">
               <input semantic="POSITION" source="#mesh5-geometry-position"/>
            </vertices>
            <triangles material="material1" count="88">
               <input semantic="VERTEX" source="#mesh5-geometry-vertex" offset="0"/>
               <input semantic="NORMAL" source="#mesh5-geometry-normal" offset="1"/>
               <input semantic="TEXCOORD" source="#mesh5-geometry-uv" offset="2" set="0"/>
               <p>0 0 0 1 0 1 2 0 2 3 0 3 1 0 1 0 0 0 4 0 4 1 0 1 3 0 3 4 0 4 5 0 5 1 0 1 6 0 6 5 0 5 4 0 4 6 0 6 7 0 7 5 0 5 8 0 8 7 0 7 6 0 6 7 0 7 8 0 8 9 0 9 8 1 10 10 1 11 9 1 12 10 1 11 8 1 10 11 1 13 12 1 14 11 1 13 8 1 10 11 1 13 12 1 14 13 1 15 14 2 16 13 2 17 12 2 18 13 2 17 14 2 16 15 2 19 15 2 19 14 2 16 16 2 20 17 2 21 16 2 20 14 2 16 16 2 20 17 2 21 18 2 22 18 2 22 17 2 21 19 2 23 4 3 24 19 3 25 17 3 26 19 3 25 4 3 24 3 3 27 3 4 28 20 4 29 19 4 30 0 4 31 20 4 29 3 4 28 21 4 32 20 4 29 0 4 31 21 4 32 22 4 33 20 4 29 23 4 34 22 4 33 21 4 32 23 4 34 24 4 35 22 4 33 25 4 36 24 4 35 23 4 34 24 4 35 25 4 36 26 4 37 25 5 38 27 5 39 26 5 40 27 5 39 25 5 38 28 5 41 29 0 42 28 0 43 25 0 44 30 0 45 28 0 43 29 0 42 28 0 43 30 0 45 31 0 46 32 0 47 31 0 46 30 0 45 33 0 48 31 0 46 32 0 47 31 0 46 33 0 48 34 0 49 33 1 50 35 1 51 34 1 52 35 1 51 33 1 50 36 1 53 33 6 54 37 6 55 36 6 56 37 6 55 33 6 54 32 6 57 42 6 72 23 6 73 43 6 74 23 6 73 42 6 72 44 6 75 42 0 76 25 0 44 44 0 77 29 0 42 25 0 44 42 0 76 44 4 78 25 4 36 23 4 34 23 0 77 45 0 2 43 0 76 45 0 2 23 0 77 21 0 0 0 8 79 45 8 80 21 8 81 45 8 80 0 8 79 2 8 82 10 0 9 37 0 47 49 0 7 37 0 47 10 0 9 36 0 48 51 1 105 36 1 53 10 1 11 52 1 106 36 1 53 51 1 105 35 1 51 36 1 53 52 1 106 52 9 107 53 9 108 35 9 109 53 9 108 52 9 107 54 9 110 51 10 111 54 10 112 52 10 113 54 10 112 51 10 111 55 10 114 51 11 115 56 11 19 55 11 110 56 11 19 51 11 115 11 11 116 51 1 105 10 1 11 11 1 13 13 12 117 56 12 118 11 12 119 56 12 118 13 12 117 15 12 120 18 2 22 19 2 23 60 2 133 60 2 133 19 2 23 61 2 134 19 4 30 20 4 29 61 4 135 20 8 136 60 8 137 61 8 138 60 8 137 20 8 136 59 8 139 20 14 134 62 14 140 59 14 133 62 14 140 20 14 134 22 14 141 24 6 138 62 6 142 22 6 143 62 6 142 24 6 138 63 6 144 24 9 145 64 9 146 63 9 147 26 9 148 64 9 146 24 9 145 27 9 149 64 9 146 26 9 148 27 9 149 65 9 150 64 9 146 53 9 108 65 9 150 27 9 149 53 9 108 54 9 110 65 9 150 28 19 179 53 19 180 27 19 181 53 19 180 28 19 179 31 19 182 31 20 183 35 20 184 53 20 185 35 20 184 31 20 183 34 20 186 7 8 187 10 8 188 49 8 189 10 8 188 7 8 187 9 8 190 17 21 191 6 21 192 4 21 193 6 21 192 17 21 191 14 21 194 14 6 195 8 6 54 6 6 196 8 6 54 14 6 195 12 6 197 </p>
            </triangles>
            <triangles material="FrontColorNoCulling" count="52">
               <input semantic="VERTEX" source="#mesh5-geometry-vertex" offset="0"/>
               <input semantic="NORMAL" source="#mesh5-geometry-normal" offset="1"/>
               <input semantic="TEXCOORD" source="#mesh5-geometry-uv" offset="2" set="0"/>
               <p>32 4 58 38 4 59 37 4 60 30 4 61 38 4 59 32 4 58 38 4 59 30 4 61 39 4 62 30 6 63 40 6 64 39 6 65 40 6 64 30 6 63 41 6 66 41 6 66 30 6 63 29 6 67 42 7 68 41 7 69 29 7 70 41 7 69 42 7 68 43 7 71 1 7 83 45 7 84 2 7 85 45 7 84 1 7 83 46 7 86 46 7 86 1 7 83 47 7 87 1 8 88 48 8 89 47 8 90 48 8 89 1 8 88 5 8 91 7 4 92 48 4 93 5 4 94 49 4 95 48 4 93 7 4 92 48 4 93 49 4 95 50 4 96 37 4 60 50 4 96 49 4 95 50 4 96 37 4 60 38 4 59 38 0 97 40 0 98 50 0 99 40 0 98 38 0 97 39 0 100 50 0 99 40 0 98 48 0 101 48 0 101 40 0 98 47 0 102 47 0 102 40 0 98 46 0 103 40 7 104 43 7 71 46 7 86 43 7 71 40 7 104 41 7 69 46 7 86 43 7 71 45 7 84 16 4 121 56 4 122 15 4 123 56 4 122 16 4 121 57 4 124 18 13 125 57 13 126 16 13 127 57 13 126 18 13 125 58 13 128 18 7 129 59 7 130 58 7 131 59 7 130 18 7 129 60 7 132 54 15 151 66 15 152 65 15 153 66 15 152 54 15 151 55 15 154 67 4 155 66 4 152 55 4 154 66 4 152 67 4 155 68 4 156 58 16 157 68 16 158 67 16 159 68 16 158 58 16 157 69 16 160 69 16 160 58 16 157 70 16 161 58 7 131 59 7 130 70 7 162 62 17 163 70 17 164 59 17 165 70 17 164 62 17 163 71 17 166 63 7 167 71 7 168 62 7 169 64 7 170 71 7 168 63 7 167 71 7 168 64 7 170 69 7 171 64 18 172 66 18 173 69 18 174 66 18 173 64 18 172 65 18 175 69 18 174 66 18 173 68 18 176 69 16 160 70 16 161 71 16 177 57 13 126 58 13 128 67 13 178 67 4 155 56 4 122 57 4 124 67 4 155 55 4 154 56 4 122 </p>
            </triangles>
         </mesh>
      </geometry>
      <geometry id="mesh6-geometry" name="mesh6-geometry">
         <mesh>
            <source id="mesh6-geometry-position">
               <float_array id="mesh6-geometry-position-array" count="54">13.756943 1.997500 24.000000 13.756943 0.000000 24.000000 13.756943 1.997500 12.000000 13.569443 1.997500 24.000000 11.761893 1.997500 24.000000 11.400000 1.997500 24.000000 11.400000 0.000000 24.000000 11.400000 1.997500 12.000000 13.756943 1.810000 12.000000 13.756943 0.000000 12.000000 13.569443 1.810000 12.000000 11.400000 1.810000 12.000000 11.400000 0.000000 12.000000 11.763342 -0.000000 12.000000 11.763342 1.810000 12.000000 11.761893 1.747500 24.000000 13.569443 1.747500 24.000000 13.569443 0.000000 24.000000 </float_array>
               <technique_common>
                  <accessor source="#mesh6-geometry-position-array" count="18" stride="3">
                     <param name="X" type="float"/>
                     <param name="Y" type="float"/>
                     <param name="Z" type="float"/>
                  </accessor>
               </technique_common>
            </source>
            <vertices id="mesh6-geometry-vertex">
               <input semantic="POSITION" source="#mesh6-geometry-position"/>
            </vertices>
            <lines material="ForegroundColor" count="18">
               <input semantic="VERTEX" source="#mesh6-geometry-vertex" offset="0"/>
               <p>0 1 0 2 0 3 4 3 5 4 6 5 5 7 2 7 2 8 9 8 8 10 7 11 12 11 12 13 11 14 4 15 3 16 1 17 </p>
            </lines>
         </mesh>
      </geometry>
      <geometry id="mesh7-geometry" name="mesh7-geometry">
         <mesh>
            <source id="mesh7-geometry-position">
               <float_array id="mesh7-geometry-position-array" count="54">13.367373 155.002500 24.000000 13.367373 157.000000 24.000000 13.367373 155.002500 12.000000 13.001756 155.002500 24.000000 11.010430 155.002500 24.000000 13.001756 155.190000 24.000000 11.010430 155.002500 12.000000 11.010430 155.190000 24.000000 11.010430 157.000000 24.000000 11.197930 155.190000 24.000000 11.197930 157.000000 24.000000 11.010430 157.000000 12.000000 11.197930 155.002500 12.000000 13.001756 155.002500 12.000000 11.197930 155.190000 12.000000 13.367373 157.000000 12.000000 13.001756 157.000000 12.000000 13.001756 155.190000 12.000000 </float_array>
               <technique_common>
                  <accessor source="#mesh7-geometry-position-array" count="18" stride="3">
                     <param name="X" type="float"/>
                     <param name="Y" type="float"/>
                     <param name="Z" type="float"/>
                  </accessor>
               </technique_common>
            </source>
            <vertices id="mesh7-geometry-vertex">
               <input semantic="POSITION" source="#mesh7-geometry-position"/>
            </vertices>
            <lines material="ForegroundColor" count="18">
               <input semantic="VERTEX" source="#mesh7-geometry-vertex" offset="0"/>
               <p>0 1 0 2 0 3 3 4 3 5 4 6 4 7 7 8 7 9 8 10 6 11 6 12 12 13 12 14 2 13 2 15 15 16 13 17 </p>
            </lines>
         </mesh>
      </geometry>
   </library_geometries>
   <library_cameras>
      <camera id="Camera-camera" name="Camera-camera">
         <optics>
            <technique_common>
               <perspective>
                  <xfov>46.666667</xfov>
                  <yfov>35.000000</yfov>
                  <znear>1.000000</znear>
                  <zfar>1000.000000</zfar>
               </perspective>
            </technique_common>
         </optics>
      </camera>
   </library_cameras>
   <library_visual_scenes>
      <visual_scene id="SketchUpScene" name="SketchUpScene">
         <node id="Model" name="Model">
            <node id="Group1" name="Group1">
               <node id="mesh1" name="mesh1">
                  <instance_geometry url="#mesh1-geometry">
                     <bind_material>
                        <technique_common>
                           <instance_material symbol="material0" target="#material0ID">
                              <bind_vertex_input semantic="UVSET0" input_semantic="TEXCOORD" input_set="0"/>
                           </instance_material>
                        </technique_common>
                     </bind_material>
                  </instance_geometry>
               </node>
               <node id="mesh2" name="mesh2">
                  <instance_geometry url="#mesh2-geometry">
                     <bind_material>
                        <technique_common>
                           <instance_material symbol="ForegroundColor" target="#ForegroundColorID"/>
                        </technique_common>
                     </bind_material>
                  </instance_geometry>
               </node>
            </node>
            <node id="Group2" name="Group2">
               <node id="mesh3" name="mesh3">
                  <instance_geometry url="#mesh3-geometry">
                     <bind_material>
                        <technique_common>
                           <instance_material symbol="material0" target="#material0ID">
                              <bind_vertex_input semantic="UVSET0" input_semantic="TEXCOORD" input_set="0"/>
                           </instance_material>
                        </technique_common>
                     </bind_material>
                  </instance_geometry>
               </node>
               <node id="mesh4" name="mesh4">
                  <instance_geometry url="#mesh4-geometry">
                     <bind_material>
                        <technique_common>
                           <instance_material symbol="ForegroundColor" target="#ForegroundColorID"/>
                        </technique_common>
                     </bind_material>
                  </instance_geometry>
               </node>
            </node>
            <node id="mesh5" name="mesh5">
               <instance_geometry url="#mesh5-geometry">
                  <bind_material>
                     <technique_common>
                        <instance_material symbol="material1" target="#material1ID">
                           <bind_vertex_input semantic="UVSET0" input_semantic="TEXCOORD" input_set="0"/>
                        </instance_material>
                        <instance_material symbol="FrontColorNoCulling" target="#FrontColorNoCullingID"/>
                     </technique_common>
                  </bind_material>
               </instance_geometry>
            </node>
            <node id="mesh6" name="mesh6">
               <instance_geometry url="#mesh6-geometry">
                  <bind_material>
                     <technique_common>
                        <instance_material symbol="ForegroundColor" target="#ForegroundColorID"/>
                     </technique_common>
                  </bind_material>
               </instance_geometry>
            </node>
            <node id="mesh7" name="mesh7">
               <instance_geometry url="#mesh7-geometry">
                  <bind_material>
                     <technique_common>
                        <instance_material symbol="ForegroundColor" target="#ForegroundColorID"/>
                     </technique_common>
                  </bind_material>
               </instance_geometry>
            </node>
         </node>
         <node id="Camera" name="Camera">
            <matrix>
               -0.947929 0.124168 -0.293279 -65.669509
               -0.318481 -0.369574 0.872917 275.951208
               0.000000 0.920868 0.389875 93.656875
               0.000000 0.000000 0.000000 1.000000
            </matrix>
            <instance_camera url="#Camera-camera"/>
         </node>
      </visual_scene>
   </library_visual_scenes>
   <scene>
      <instance_visual_scene url="#SketchUpScene"/>
   </scene>
</COLLADA>
